A Very Gentle Introduction to
…
.pull-left[

``` r
x    <- rnorm(n=10^5,mean=0,sd=1) 
g    <- sample(c(0,1), size=10^5, replace=T)
beta0  <- 0.5; beta1 <- 1.1
delta0 <- 1; delta1 <- 0.4
mu     <- beta0 + beta1*x 
sigma  <- delta0 + delta1*g 
y    <- rnorm(n=10^5,mean=mu,sd=sigma)
```

```
## # A tibble: 100,000 × 3
##         x     g      y
##     <dbl> <dbl>  <dbl>
##  1 -1.04      1 -1.41 
##  2 -1.05      0 -0.503
##  3  1.60      0  2.85 
##  4 -1.79      0 -1.81 
##  5  0.653     1  0.483
##  6 -0.406     0 -0.274
##  7  0.273     0  1.15 
##  8  0.389     1  0.670
##  9  2.10      1  3.58 
## 10 -1.07      0 -0.208
## # ℹ 99,990 more rows
```
…
